CSCNet vignette
…
Regularized cause-specific cox and absolute risk predictions

In this package we will use Melanoma data from
‘riskRegression’ package (which will load up with ‘CSCNet’) so we start
by loading the package and the Melanoma data.

library(CSCNet)
library(riskRegression)
data(Melanoma)
as_tibble(Melanoma)
# A tibble: 205 × 11
    time status event     invasion ici   epicel ulcer thick sex     age logthick
   <int>  <dbl> <fct>     <fct>    <fct> <fct>  <fct> <dbl> <fct> <int>    <dbl>
 1    10      2 death.ot… level.1  2     prese… pres…  6.76 Male     76    1.91 
 2    30      2 death.ot… level.0  0     not p… not …  0.65 Male     56   -0.431
 3    35      0 censored  level.1  2     not p… not …  1.34 Male     41    0.293
 4    99      2 death.ot… level.0  2     not p… not …  2.9  Fema…    71    1.06 
 5   185      1 death.ma… level.2  2     prese… pres… 12.1  Male     52    2.49 
 6   204      1 death.ma… level.2  2     not p… pres…  4.84 Male     28    1.58 
 7   210      1 death.ma… level.2  2     prese… pres…  5.16 Male     77    1.64 
 8   232      1 death.ma… level.2  2     not p… pres… 12.9  Male     49    2.56 
 9   232      2 death.ot… level.1  3     not p… pres…  3.22 Fema…    60    1.17 
10   279      1 death.ma… level.0  2     not p… pres…  7.41 Fema…    68    2.00 
# ℹ 195 more rows
…
